<?xml version="1.0" encoding="utf-8"?>
<!-- Generator: Adobe Illustrator 23.0.2, SVG Export Plug-In . SVG Version: 6.00 Build 0)  -->
<svg version="1.1" id="Layer_1" xmlns="http://www.w3.org/2000/svg" xmlns:xlink="http://www.w3.org/1999/xlink" x="0px" y="0px"
	 viewBox="0 0 144 144" style="enable-background:new 0 0 144 144;" xml:space="preserve">
<style type="text/css">
	.st0{fill:#ADB9C3;}
	.st1{fill:#002244;}
</style>
<g>
	<path class="st0" d="M121.38,95.33v-2.52c-0.02-7.96-5.66-14.8-13.47-16.34c5.45-5.7,5.25-14.75-0.46-20.2
		c-5.7-5.45-14.75-5.25-20.2,0.46c-5.28,5.52-5.28,14.22,0,19.75c-7.81,1.54-13.45,8.37-13.48,16.34v9.53
		c0,1.32,1.07,2.38,2.38,2.38h23.85c-3.12,4.11-4.81,9.12-4.81,14.28c0,13.15,10.65,23.81,23.8,23.81s23.81-10.65,23.81-23.8
		c0-12.23-9.26-22.47-21.42-23.69L121.38,95.33z M97.58,57.12c5.26-0.01,9.53,4.25,9.54,9.51c0.01,5.26-4.25,9.53-9.51,9.54
		c-5.26,0.01-9.53-4.25-9.54-9.51c0,0,0-0.01,0-0.01C88.07,61.39,92.32,57.13,97.58,57.12z M78.54,92.81
		c0.02-6.58,5.37-11.9,11.95-11.88c0,0,0,0,0,0h14.23c6.56,0.01,11.88,5.32,11.9,11.88v2.51c-1,0.1-1.99,0.27-2.97,0.51l-0.53,0.14
		c-0.83,0.21-1.66,0.46-2.46,0.76l-0.44,0.16c-0.93,0.37-1.83,0.8-2.71,1.28l-0.25,0.15c-0.75,0.43-1.47,0.91-2.16,1.42l-0.36,0.22
		h-26.2V92.81z M119,138.03c-10.51,0.01-19.03-8.51-19.04-19.02c0-6.3,3.11-12.19,8.31-15.73l0.14-0.07
		c0.47-0.32,0.97-0.61,1.47-0.89l0.28-0.14c0.44-0.23,0.88-0.45,1.33-0.65l0.35-0.14c0.44-0.17,0.88-0.34,1.33-0.49l0.4-0.13
		c0.44-0.13,0.88-0.24,1.33-0.35l0.46-0.09c0.45-0.09,0.9-0.15,1.35-0.21h0.46c0.6,0,1.16-0.09,1.83-0.09
		c10.52,0,19.04,8.52,19.04,19.04s-8.52,19.04-19.04,19.04V138.03z"/>
	<polygon class="st1" points="121.38,107.1 116.62,107.1 116.62,116.62 107.09,116.62 107.09,121.39 116.62,121.39 116.62,130.9 
		121.38,130.9 121.38,121.39 130.9,121.39 130.9,116.62 121.38,116.62 	"/>
	<path class="st0" d="M21.42,73.78h52.36c1.31,0.01,2.38-1.05,2.38-2.36c0,0,0-0.01,0-0.01V52.35c0,0,0,0,0-0.07
		c0-0.24-0.04-0.47-0.1-0.69l-4.77-14.27c-0.33-0.99-1.27-1.65-2.31-1.63H57.12v-2.36c0-0.77-0.37-1.49-0.99-1.94L40.46,20.2v-5.92
		h11.88c1.31,0.01,2.38-1.04,2.39-2.35c0-0.02,0-0.03,0-0.05v-9.5c0-1.32-1.07-2.38-2.38-2.38c0,0-0.01,0-0.01,0H38.08
		c-1.32,0-2.38,1.07-2.38,2.38c0,0,0,0,0,0V20.2L20.03,31.39c-0.62,0.45-0.99,1.17-0.99,1.94v2.37H7.14c-1.01,0-1.89,0.66-2.2,1.62
		L0.12,51.61c-0.07,0.22-0.11,0.46-0.12,0.69c0,0,0,0,0,0.07v19.04c0,1.31,1.06,2.37,2.37,2.37c0,0,0.01,0,0.01,0H21.42z
		 M4.76,54.74h14.28v14.29H4.76V54.74z M33.31,69.03v-7.14c0-2.63,2.14-4.76,4.77-4.76c2.63,0,4.76,2.13,4.76,4.76v7.14H33.31z
		 M71.46,69.03H57.12V54.74H71.4L71.46,69.03z M67.3,40.46l3.18,9.57H57.12v-9.57H67.3z M40.46,4.76h9.57v4.81h-9.57V4.76z
		 M23.8,34.55l14.28-10.21l14.27,10.21v34.47H47.6v-7.14c-0.18-5.26-4.59-9.37-9.85-9.19c-5,0.17-9.01,4.19-9.19,9.19v7.14H23.8
		V34.55z M8.85,40.46h10.18v9.57H5.68L8.85,40.46z"/>
	<path class="st1" d="M38.08,47.61c3.95,0.01,7.15-3.19,7.16-7.13c0.01-3.95-3.19-7.15-7.13-7.16c-3.95-0.01-7.15,3.19-7.16,7.13
		c0,0,0,0.01,0,0.01C30.94,44.4,34.13,47.6,38.08,47.61z M38.08,38.08c1.32,0,2.38,1.07,2.38,2.38c0,1.32-1.07,2.38-2.38,2.38
		c-1.32,0-2.38-1.07-2.38-2.38C35.69,39.15,36.76,38.08,38.08,38.08C38.08,38.08,38.08,38.08,38.08,38.08z"/>
	<rect x="9.52" y="59.5" class="st1" width="4.76" height="4.76"/>
	<rect x="61.88" y="59.5" class="st1" width="4.76" height="4.76"/>
	<rect x="95.2" y="42.84" width="4.76" height="4.76"/>
	<rect x="95.2" y="33.32" width="4.76" height="4.76"/>
	<rect x="95.2" y="23.8" width="4.76" height="4.76"/>
	<rect x="85.68" y="23.8" width="4.76" height="4.76"/>
	<rect x="76.16" y="23.8" width="4.76" height="4.76"/>
	<rect x="64.26" y="99.97" width="4.76" height="4.76"/>
	<rect x="54.73" y="99.97" width="4.76" height="4.76"/>
	<rect x="45.22" y="99.97" width="4.76" height="4.76"/>
	<rect x="26.18" y="99.97" width="4.76" height="4.76"/>
	<rect x="26.18" y="90.44" width="4.76" height="4.76"/>
	<rect x="26.18" y="80.92" width="4.76" height="4.76"/>
	<rect x="35.69" y="99.97" width="4.76" height="4.76"/>
	<path class="st1" d="M78.36,93.87c0-5.91,3.32-10.76,7.76-12.14c0.67,1.22,1.75,2.17,3.05,2.68c6.68,3.23,13.87,3.03,19.86-2.95
		c4.45,1.38,7.58,6.5,7.6,12.4v2.17l4.62-2.17c0-9.32-5.33-17.14-12.43-18.5c4.85-6.2,3.76-15.16-2.44-20.01
		c-6.2-4.85-15.16-3.76-20.01,2.44c-4.04,5.16-4.04,12.41,0,17.57c-7.16,1.23-12.55,9.09-12.57,18.5v7.9
		c-0.13,1.44,0.88,2.74,2.31,2.96h22.25l12.46-5.93H78.36V93.87z M97.58,56.88c5.39-0.01,9.76,4.36,9.77,9.75
		c0.01,5.39-4.36,9.76-9.75,9.77c-5.39,0.01-9.76-4.36-9.77-9.75c0,0,0-0.01,0-0.01c0.03-5.37,4.37-9.72,9.75-9.75L97.58,56.88z"/>
	<polygon class="st1" points="116.63,96.05 110.84,98.8 116.63,98.8 	"/>
	<path class="st0" d="M119,144c-13.8,0-24.99-11.19-24.99-24.99c0-13.8,11.19-24.99,24.99-24.99c13.8,0,24.99,11.19,24.99,24.99
		C143.98,132.8,132.8,143.98,119,144z M119,98.77c-11.17,0-20.23,9.06-20.23,20.23s9.06,20.23,20.23,20.23s20.23-9.06,20.23-20.23
		l0,0C139.22,107.84,130.17,98.79,119,98.77z"/>
</g>
</svg>
