<?xml version="1.0" encoding="utf-8"?>
<!-- Generator: Adobe Illustrator 23.0.2, SVG Export Plug-In . SVG Version: 6.00 Build 0)  -->
<svg version="1.1" id="Layer_1" xmlns="http://www.w3.org/2000/svg" xmlns:xlink="http://www.w3.org/1999/xlink" x="0px" y="0px"
	 viewBox="0 0 144 144" style="enable-background:new 0 0 144 144;" xml:space="preserve">
<style type="text/css">
	.st0{fill:#ADB9C3;}
	.st1{fill:#002244;}
</style>
<g>
	<path class="st0" d="M135.14,30.67L114.26,2.66c-1.37-1.69-3.38-2.52-5.87-2.66H35.6c-2.27,0.11-4.36,0.83-5.87,2.66L8.86,30.67
		c-2.12,3.24,0.4,6.41,3.17,6.41h119.92C135.4,36.94,137.02,33.41,135.14,30.67z M20.02,29.09l15.7-21.02h72.58l15.7,21.02H20.02z"
		/>
	<path class="st0" d="M72,97.02c14.73,0,26.69-11.96,26.69-26.69S86.73,43.61,72,43.61S45.31,55.57,45.31,70.3S57.26,97.02,72,97.02
		z M72,51.83c10.2,0,18.47,8.27,18.47,18.47S82.2,88.77,72,88.77S53.52,80.5,53.52,70.3S61.8,51.83,72,51.83z"/>
	<path class="st1" d="M65.23,74.3H72c2.21,0,4-1.79,4-4v-9.69c0-2.21-1.79-4-4-4s-4,1.79-4,4v5.7h-2.78c-2.21,0-4,1.79-4,4
		C61.23,72.51,63.02,74.3,65.23,74.3z"/>
	<path class="st1" d="M19.04,87.81c2.21,0,4-1.79,4-4v-4.65c0-2.21-1.79-4-4-4s-4,1.79-4,4v4.65
		C15.05,86.03,16.83,87.81,19.04,87.81z"/>
	<path class="st1" d="M19.04,109.12c2.21,0,4-1.79,4-4v-4.65c0-2.21-1.79-4-4-4s-4,1.79-4,4v4.65
		C15.05,107.33,16.83,109.12,19.04,109.12z"/>
	<path class="st1" d="M19.04,130.43c2.21,0,4-1.79,4-4v-4.65c0-2.21-1.79-4-4-4s-4,1.79-4,4v4.65
		C15.05,128.64,16.83,130.43,19.04,130.43z"/>
	<path class="st1" d="M124.96,87.81c2.21,0,4-1.79,4-4v-4.65c0-2.21-1.79-4-4-4s-4,1.79-4,4v4.65
		C120.96,86.03,122.75,87.81,124.96,87.81z"/>
	<path class="st1" d="M124.96,109.12c2.21,0,4-1.79,4-4v-4.65c0-2.21-1.79-4-4-4s-4,1.79-4,4v4.65
		C120.96,107.33,122.75,109.12,124.96,109.12z"/>
	<path class="st1" d="M124.96,130.43c2.21,0,4-1.79,4-4v-4.65c0-2.21-1.79-4-4-4s-4,1.79-4,4v4.65
		C120.96,128.64,122.75,130.43,124.96,130.43z"/>
	<path class="st0" d="M139.97,61.6h-26.03v7.99h22v66.42h-22V144h26.03c2.23,0,4-1.8,4-4V65.59C143.96,63.4,142.2,61.6,139.97,61.6z
		 M0.04,65.59V140c0,2.2,1.76,4,4,4h26.03v-7.99H8.03V69.59h22.03V61.6H4.03C1.8,61.6,0.04,63.4,0.04,65.59z"/>
	<path class="st1" d="M105.95,37.08v98.93H89.3v-27.27c0-2.23-1.8-4-4-4H58.66c-2.2,0-3.96,1.76-3.96,4v27.27H38.05V37.08h-7.99V144
		h32.63v-4.33v-3.66v-23.27h18.61v23.27v3.66V144h32.63V37.08H105.95z"/>
</g>
</svg>
