<?xml version="1.0" encoding="utf-8"?>
<!-- Generator: Adobe Illustrator 23.0.2, SVG Export Plug-In . SVG Version: 6.00 Build 0)  -->
<svg version="1.1" id="Layer_1" xmlns="http://www.w3.org/2000/svg" xmlns:xlink="http://www.w3.org/1999/xlink" x="0px" y="0px"
	 viewBox="0 0 144 144" style="enable-background:new 0 0 144 144;" xml:space="preserve">
<style type="text/css">
	.st0{fill:#002244;}
	.st1{fill:#ADB9C3;}
</style>
<g>
	<path class="st0" d="M12.86,107.6h5.84l-2.93,5.14c-0.71,1.24-0.28,2.81,0.95,3.52c1.24,0.71,2.81,0.28,3.52-0.95l0,0l2.91-5.14
		l2.91,5.14c0.71,1.24,2.29,1.66,3.52,0.95c1.24-0.71,1.66-2.29,0.95-3.52l0,0l-2.93-5.14h5.84c1.42,0,2.57-1.15,2.57-2.57
		s-1.15-2.57-2.57-2.57h-5.84l2.93-5.14c0.71-1.24,0.28-2.81-0.95-3.52c-1.24-0.71-2.81-0.28-3.52,0.95l-2.91,5.14l-2.91-5.14
		c-0.71-1.24-2.29-1.66-3.52-0.95c-1.24,0.71-1.66,2.29-0.95,3.52l0,0l2.93,5.14h-5.84c-1.42,0-2.57,1.15-2.57,2.57
		S11.44,107.6,12.86,107.6z"/>
	<path class="st0" d="M45.44,107.6h5.81l-2.91,5.14c-0.71,1.23-0.29,2.8,0.94,3.51c0.01,0,0.01,0.01,0.02,0.01
		c1.23,0.7,2.79,0.27,3.5-0.95l2.93-5.14l2.91,5.14c0.66,1.26,2.21,1.74,3.47,1.09c1.26-0.66,1.74-2.21,1.09-3.47
		c-0.03-0.06-0.07-0.13-0.11-0.19l-2.91-5.14h5.84c1.42,0,2.57-1.15,2.57-2.57s-1.15-2.57-2.57-2.57h-5.84l2.91-5.14
		c0.76-1.2,0.41-2.79-0.79-3.55c-1.2-0.76-2.79-0.41-3.55,0.79c-0.04,0.06-0.07,0.12-0.11,0.19l-2.91,5.14l-2.93-5.14
		c-0.71-1.22-2.27-1.65-3.5-0.95c-1.23,0.7-1.66,2.27-0.96,3.51c0,0.01,0.01,0.01,0.01,0.02l2.91,5.14h-5.81
		c-1.42,0-2.57,1.15-2.57,2.57S44.02,107.6,45.44,107.6z"/>
	<path class="st0" d="M91.21,94.74l-2.93,5.14l-2.91-5.14c-0.66-1.26-2.21-1.74-3.47-1.09s-1.74,2.21-1.09,3.47
		c0.03,0.06,0.07,0.13,0.11,0.19l2.91,5.14h-5.84c-1.42,0-2.57,1.15-2.57,2.57s1.15,2.57,2.57,2.57h5.84l-2.91,5.14
		c-0.72,1.23-0.31,2.8,0.92,3.52c0,0,0,0,0.01,0c1.23,0.71,2.8,0.29,3.51-0.94c0-0.01,0.01-0.01,0.01-0.02l2.91-5.14l2.93,5.14
		c0.71,1.22,2.27,1.65,3.5,0.95c1.23-0.7,1.66-2.27,0.96-3.51c0-0.01-0.01-0.01-0.01-0.02l-2.91-5.14h5.81
		c1.42,0,2.57-1.15,2.57-2.57s-1.15-2.57-2.57-2.57h-5.81l2.91-5.14c0.71-1.23,0.29-2.8-0.94-3.51c-0.01,0-0.01-0.01-0.02-0.01
		C93.48,93.1,91.91,93.52,91.21,94.74z"/>
	<path class="st0" d="M110.57,107.6h5.84l-2.93,5.14c-0.71,1.24-0.28,2.81,0.95,3.52c1.24,0.71,2.81,0.28,3.52-0.95l2.91-5.14
		l2.91,5.14c0.71,1.24,2.29,1.66,3.52,0.95c1.24-0.71,1.66-2.29,0.95-3.52l-2.93-5.14h5.84c1.42,0,2.57-1.15,2.57-2.57
		s-1.15-2.57-2.57-2.57h-5.84l2.93-5.14c0.71-1.24,0.28-2.81-0.95-3.52c-1.24-0.71-2.81-0.28-3.52,0.95l-2.91,5.14l-2.91-5.14
		c-0.71-1.24-2.29-1.66-3.52-0.95c-1.24,0.71-1.66,2.29-0.95,3.52l2.93,5.14h-5.84c-1.42,0-2.57,1.15-2.57,2.57
		S109.15,107.6,110.57,107.6z"/>
	<path class="st1" d="M141.43,125.6H2.57c-1.42,0-2.57,1.15-2.57,2.57c0,1.42,1.15,2.57,2.57,2.57h138.86
		c1.42,0,2.57-1.15,2.57-2.57C144,126.75,142.85,125.6,141.43,125.6z"/>
	<path class="st1" d="M94.06,49.77v17.56H49.67V49.66l-5.28-2.89v23.19c-0.05,1.47,1.09,2.74,2.59,2.82h49.83
		c1.51,0,2.73-1.22,2.73-2.71V46.7L94.06,49.77z"/>
	<path class="st0" d="M114.91,37.96c0.03-0.22,0.03-0.45,0-0.66l-0.02-0.14l-0.15-0.19c-0.03-0.08-0.06-0.16-0.1-0.24l-0.08-0.27
		c-0.11-0.18-0.24-0.35-0.45-0.56l-0.43-0.32L73.35,13.58c-0.82-0.43-1.79-0.44-2.61,0L30.42,35.58c-0.64,0.36-1.11,0.94-1.31,1.65
		c-0.2,0.7-0.12,1.44,0.24,2.08c0.25,0.45,0.62,0.82,1.07,1.07l40.15,21.9c0.41,0.22,0.85,0.33,1.3,0.33c0.45,0,0.9-0.11,1.31-0.33
		l36.28-19.79v7.13c0,1.5,1.23,2.73,2.73,2.73c1.5,0,2.73-1.22,2.73-2.73L114.91,37.96z M69.15,37.89c0,1.5,1.22,2.73,2.73,2.73
		h29.62L71.87,56.77L37.25,37.89l34.62-18.88l29.62,16.15H71.87C70.37,35.16,69.15,36.38,69.15,37.89z"/>
</g>
</svg>
